…
    filter, lag

The following objects are masked from ‘package:base’:

    intersect, setdiff, setequal, union

> library(tidyr)
> challengedescriptions %>%
+    group_by(series,season,outcomeType) %>%
+    summarise(n=n()) %>%
+    pivot_wider(names_from=outcomeType,values_from=n)
`summarise()` has grouped output by 'series', 'season'. You can override using
the `.groups` argument.
# A tibble: 27 × 4
# Groups:   series, season [27]
   series season              Individual  Team
   <chr>  <chr>                    <int> <int>
 1 Canada Canada 6                    14     2
 2 US     All Stars: New York         22     8
 3 US     All-Stars L.A.              18     6
 4 US     Boston                      21     6
 5 US     California                  20     6
 6 US     Charleston                  17     7
 7 US     Chicago                     18     9
 8 US     Colorado                    19     6
 9 US     D.C.                        21     6
10 US     Houston                     17     7
# ℹ 17 more rows
…
The following objects are masked from ‘package:stats’:

    filter, lag

The following objects are masked from ‘package:base’:

    intersect, setdiff, setequal, union

> library(tidyr)
> rewards %>%
+   filter(rewardType == "Money") %>%
+   mutate(reward=as.numeric(reward)) %>%
+   group_by(season) %>%
+   summarise(total=sum(reward))
# A tibble: 22 × 2
   season               total
   <chr>                <dbl>
 1 All Stars: New York 135000
 2 All-Stars L.A.       75000
 3 Boston               30000
 4 California           25000
 5 Canada 6             23000
 6 Charleston           20000
 7 Colorado             60000
 8 D.C.                 90000
 9 Houston              80000
10 Kentucky             50000
# ℹ 12 more rows
…
